%YAML 1.1
%TAG !u! tag:unity3d.com,2011:
--- !u!114 &11400000
MonoBehaviour:
  m_ObjectHideFlags: 0
  m_CorrespondingSourceObject: {fileID: 0}
  m_PrefabInstance: {fileID: 0}
  m_PrefabAsset: {fileID: 0}
  m_GameObject: {fileID: 0}
  m_Enabled: 1
  m_EditorHideFlags: 0
  m_Script: {fileID: 11500000, guid: 6c08f7c2b2226b1429250c5541420efe, type: 3}
  m_Name: Fireball
  m_EditorClassIdentifier: 
  abilityName: Fireball
  abilitySound: {fileID: 0}
  abilityCooldown: 3
  projectile: {fileID: 78103811898175739, guid: 816ce8c8582049247aa22ffa50f2018f,
    type: 3}
